Position,Amino acid,Probabilities
1,N,0.15624892711639404
2,Q,0.12655729055404663
3,G,0.08262675255537033
4,T,0.1605628877878189
5,V,0.10736320167779922
6,N,0.18702872097492218
7,W,0.16232550144195557
8,S,0.09633483737707138
9,V,0.08866485953330994
10,E,0.07961924374103546
11,D,0.11406444758176804
12,I,0.14248648285865784
13,V,0.07258328050374985
14,K,0.12150141596794128
15,G,0.10835705697536469
16,I,0.10360684990882874
17,N,0.07958255708217621
18,S,0.17937931418418884
19,N,0.10364539176225662
20,N,0.15784937143325806
21,L,0.12968678772449493
22,E,0.07738520205020905
23,S,0.08704625070095062
24,Q,0.1148957684636116
25,L,0.08014806360006332
26,Q,0.06670709699392319
27,A,0.09701952338218689
28,T,0.4042319357395172
29,Q,0.21416956186294556
30,A,0.20875698328018188
31,A,0.24584712088108063
32,R,0.4002293050289154
33,K,0.4939662218093872
34,L,0.1804898977279663
35,L,0.49222010374069214
36,S,0.3820066750049591
37,R,0.4700251817703247
38,E,0.6932294964790344
39,K,0.560910701751709
40,Q,0.5438950061798096
41,P,0.5627617239952087
42,P,0.5465093851089478
43,I,0.3806719183921814
44,D,0.12311038374900818
45,N,0.2887437343597412
46,I,0.13850921392440796
47,I,0.12721678614616394
48,R,0.08504100143909454
49,A,0.09144933521747589
50,G,0.06528640538454056
51,L,0.09356649219989777
52,I,0.08807323127985
53,P,0.04337611049413681
54,K,0.1137591302394867
55,F,0.18454709649085999
56,V,0.07232001423835754
57,S,0.10229866951704025
58,F,0.19826656579971313
59,L,0.1890917718410492
60,G,0.09645082801580429
61,K,0.15834291279315948
62,T,0.14386017620563507
63,D,0.08984781801700592
64,C,0.2860969007015228
65,S,0.41577985882759094
66,P,0.1726963222026825
67,I,0.1208188533782959
68,Q,0.2745911777019501
69,F,0.4024485647678375
70,E,0.8706663846969604
71,S,0.4697406589984894
72,A,0.47130700945854187
73,W,0.8970394730567932
74,A,0.7519093155860901
75,L,0.2515999972820282
76,T,0.9123255610466003
77,N,0.8242972493171692
78,I,0.723970353603363
79,A,0.7112346887588501
80,S,0.7913211584091187
81,G,0.5997803211212158
82,T,0.1834038943052292
83,S,0.19291917979717255
84,E,0.14991304278373718
85,Q,0.7358883619308472
86,T,0.5391200184822083
87,K,0.11065412312746048
88,A,0.09718248248100281
89,V,0.2746312618255615
90,V,0.15471945703029633
91,D,0.07425984740257263
92,G,0.0777636468410492
93,G,0.07019421458244324
94,A,0.12010470032691956
95,I,0.07633750885725021
96,P,0.05465273931622505
97,A,0.09103599190711975
98,F,0.23237130045890808
99,I,0.10624133050441742
100,S,0.15314193069934845
101,L,0.24266226589679718
102,L,0.1293988674879074
103,A,0.17497095465660095
104,S,0.30585941672325134
105,P,0.18627703189849854
106,H,0.5766192078590393
107,A,0.1836976259946823
108,H,0.5151033997535706
109,I,0.403785765171051
110,S,0.12620191276073456
111,E,0.6839522123336792
112,Q,0.871610701084137
113,A,0.3849338889122009
114,V,0.3580099940299988
115,W,0.8486348390579224
116,A,0.6980069279670715
117,L,0.35298317670822144
118,G,0.8811689019203186
119,N,0.8314235806465149
120,I,0.6768167614936829
121,A,0.588357150554657
122,G,0.8151715993881226
123,D,0.9194514751434326
124,G,0.6090495586395264
125,S,0.5474568009376526
126,A,0.18967166543006897
127,F,0.2257710099220276
128,R,0.8029603362083435
129,D,0.7934051156044006
130,L,0.10554424673318863
131,V,0.13878566026687622
132,I,0.1072370782494545
133,K,0.12066633999347687
134,H,0.11621357500553131
135,G,0.08087772876024246
136,A,0.12126749753952026
137,I,0.12580977380275726
138,D,0.0794587954878807
139,P,0.13992181420326233
140,L,0.21482537686824799
141,L,0.21781794726848602
142,A,0.4301846921443939
143,L,0.22853729128837585
144,L,0.21536999940872192
145,A,0.25765857100486755
146,V,0.32182639837265015
147,P,0.07165952026844025
148,D,0.1781192123889923
149,L,0.1744440793991089
150,S,0.18817895650863647
151,T,0.164642795920372
152,L,0.11545293033123016
153,A,0.35993558168411255
154,C,0.10484570264816284
155,G,0.3285287022590637
156,Y,0.31379052996635437
157,L,0.10062161833047867
158,R,0.7011425495147705
159,N,0.3948422074317932
160,L,0.20472601056098938
161,T,0.23291786015033722
162,W,0.7601984143257141
163,T,0.7516882419586182
164,L,0.3032330572605133
165,S,0.8869948387145996
166,N,0.8643314242362976
167,L,0.3143225312232971
168,C,0.561105489730835
169,R,0.9410033226013184
170,N,0.5868388414382935
171,K,0.8137015700340271
172,N,0.7572779059410095
173,P,0.7614251971244812
174,A,0.5620999932289124
175,P,0.6865929365158081
176,P,0.16205234825611115
177,L,0.09178394824266434
178,D,0.16253578662872314
179,A,0.26460546255111694
180,V,0.17279426753520966
181,E,0.1555851846933365
182,Q,0.11574096232652664
183,I,0.21985939145088196
184,L,0.12731748819351196
185,P,0.09794333577156067
186,T,0.13954177498817444
187,L,0.1456630676984787
188,V,0.10759936273097992
189,R,0.16283442080020905
190,L,0.09565942734479904
191,L,0.13726840913295746
192,H,0.1185414269566536
193,H,0.2918647527694702
194,N,0.12330096960067749
195,D,0.6815952658653259
196,P,0.18074975907802582
197,E,0.757318377494812
198,V,0.2543162405490875
199,L,0.19903630018234253
200,A,0.4228612780570984
201,D,0.8514142036437988
202,S,0.3692064583301544
203,C,0.25503864884376526
204,W,0.8988223075866699
205,A,0.5701545476913452
206,I,0.2063571810722351
207,S,0.8143689632415771
208,Y,0.8267086744308472
209,L,0.4827675223350525
210,T,0.8157762885093689
211,D,0.9309821128845215
212,G,0.6601632237434387
213,P,0.3293851315975189
214,N,0.566416323184967
215,E,0.4090370237827301
216,R,0.7074511647224426
217,I,0.3847738206386566
218,E,0.21499794721603394
219,M,0.13608379662036896
220,V,0.4803488254547119
221,V,0.24220001697540283
222,K,0.13864287734031677
223,K,0.11973138898611069
224,G,0.07063990086317062
225,V,0.10499472171068192
226,V,0.22948652505874634
227,P,0.05936838313937187
228,Q,0.11758477985858917
229,L,0.2933911085128784
230,V,0.12063466757535934
231,K,0.14345982670783997
232,L,0.18396322429180145
233,L,0.33219555020332336
234,G,0.25151729583740234
235,A,0.41759148240089417
236,T,0.402086079120636
237,E,0.8393457531929016
238,L,0.18915122747421265
239,P,0.3995409607887268
240,I,0.6692389845848083
241,V,0.691348135471344
242,T,0.707925021648407
243,P,0.7397730350494385
244,A,0.35858264565467834
245,L,0.2952868342399597
246,R,0.804474949836731
247,A,0.5735048651695251
248,I,0.23618681728839874
249,G,0.6180791854858398
250,N,0.8423670530319214
251,I,0.5451192259788513
252,V,0.7386474013328552
253,T,0.822609543800354
254,G,0.5636171698570251
255,T,0.4996541142463684
256,D,0.8260244727134705
257,E,0.4233149588108063
258,Q,0.6959812641143799
259,T,0.5816016793251038
260,Q,0.2892594337463379
261,K,0.11694183945655823
262,V,0.6098620891571045
263,I,0.16455842554569244
264,D,0.17572902143001556
265,A,0.10057055950164795
266,G,0.10136924684047699
267,A,0.11715839803218842
268,L,0.18750441074371338
269,A,0.09140793979167938
270,V,0.2442452311515808
271,F,0.20228450000286102
272,P,0.06798744201660156
273,S,0.17680853605270386
274,L,0.13550569117069244
275,L,0.1260281801223755
276,T,0.14801424741744995
277,N,0.2873418927192688
278,P,0.1720227301120758
279,K,0.37431156635284424
280,T,0.25131553411483765
281,N,0.4743567109107971
282,I,0.3417679965496063
283,Q,0.3366762399673462
284,K,0.5911421179771423
285,E,0.9046998023986816
286,A,0.6078296303749084
287,T,0.4635399878025055
288,W,0.8331400156021118
289,T,0.6551470756530762
290,M,0.38492676615715027
291,S,0.8848281502723694
292,N,0.8268967866897583
293,I,0.43321406841278076
294,T,0.7156135439872742
295,A,0.8447274565696716
296,G,0.7240267992019653
297,R,0.6064677834510803
298,Q,0.20841960608959198
299,D,0.21068628132343292
300,Q,0.6981514692306519
301,I,0.5100005865097046
302,Q,0.1989528387784958
303,Q,0.0804736316204071
304,V,0.6215415000915527
305,V,0.2017182558774948
306,N,0.146714448928833
307,H,0.1310364454984665
308,G,0.1211731880903244
309,L,0.07141411304473877
310,V,0.13713884353637695
311,P,0.055659547448158264
312,F,0.11138753592967987
313,L,0.15751487016677856
314,V,0.08472321182489395
315,G,0.16067785024642944
316,V,0.09647855907678604
317,L,0.1246137022972107
318,S,0.16630178689956665
319,K,0.1556979864835739
320,A,0.21990765631198883
321,D,0.2802492380142212
322,F,0.33185556530952454
323,K,0.5629732608795166
324,T,0.49333760142326355
325,Q,0.15597639977931976
326,K,0.6693304181098938
327,E,0.8177049160003662
328,A,0.15687328577041626
329,A,0.21411855518817902
330,W,0.5978875160217285
331,A,0.5352262258529663
332,I,0.25128868222236633
333,T,0.6140328049659729
334,N,0.7399289011955261
335,Y,0.2623497545719147
336,T,0.7350277900695801
337,S,0.5627891421318054
338,G,0.509138822555542
339,G,0.30223116278648376
340,T,0.23333261907100677
341,V,0.2912742495536804
342,E,0.3667316734790802
343,Q,0.5744464993476868
344,I,0.16860318183898926
345,V,0.24868570268154144
346,Y,0.26503267884254456
347,L,0.10609563440084457
348,V,0.6140109300613403
349,H,0.1245013028383255
350,C,0.12470810115337372
351,G,0.11548896133899689
352,I,0.2279064953327179
353,I,0.2201678305864334
354,E,0.14705665409564972
355,P,0.26691734790802
356,L,0.14324384927749634
357,M,0.4176802933216095
358,N,0.2350068986415863
359,L,0.26617351174354553
360,L,0.21578089892864227
361,S,0.2486327588558197
362,A,0.2005409151315689
363,K,0.33824023604393005
364,D,0.5706440806388855
365,T,0.19603917002677917
366,K,0.464008092880249
367,I,0.20357899367809296
368,I,0.3412330150604248
369,Q,0.14404717087745667
370,V,0.27959561347961426
371,I,0.17999139428138733
372,L,0.13550536334514618
373,D,0.5423611402511597
374,A,0.1377939134836197
375,I,0.10057161003351212
376,S,0.28329768776893616
377,N,0.5482168793678284
378,I,0.15676437318325043
379,F,0.254791259765625
380,Q,0.1093456968665123
381,A,0.2646009624004364
382,A,0.1947043538093567
383,E,0.19977867603302002
384,K,0.06881743669509888
385,L,0.19078993797302246
386,G,0.0893559455871582
387,E,0.35080084204673767
388,T,0.13514897227287292
389,E,0.5066507458686829
390,K,0.08164305239915848
391,L,0.3078281879425049
392,S,0.3406544029712677
393,I,0.18590115010738373
394,M,0.26478371024131775
395,I,0.3920987844467163
396,E,0.7041957974433899
397,E,0.3721010386943817
398,C,0.359769731760025
399,G,0.5315231084823608
400,G,0.5180036425590515
401,L,0.6017370223999023
402,D,0.6880896091461182
403,K,0.3714238703250885
404,I,0.5042469501495361
405,E,0.7388918399810791
406,A,0.12545928359031677
407,L,0.5286138653755188
408,Q,0.7627628445625305
409,R,0.4035275876522064
410,H,0.3305712342262268
411,E,0.7651851773262024
412,N,0.4878390431404114
413,E,0.25994181632995605
414,S,0.13704755902290344
415,V,0.2207355499267578
416,Y,0.328312486410141
417,K,0.11604108661413193
418,A,0.16801908612251282
419,S,0.20234821736812592
420,L,0.1563948094844818
421,N,0.12726204097270966
422,L,0.4292115867137909
423,I,0.37374937534332275
424,E,0.20521658658981323
425,K,0.23630668222904205
426,Y,0.4974018931388855
427,F,0.529708206653595
428,S,0.8039548397064209
429,V,0.9133133888244629
430,E,0.8183398842811584
431,E,0.7920593619346619
432,E,0.7881172895431519
433,E,0.7794916033744812
434,D,0.8320213556289673
435,Q,0.49512386322021484
436,N,0.19903428852558136
437,V,0.4508967995643616
438,V,0.8226373791694641
439,P,0.5152707695960999
440,E,0.25755977630615234
441,T,0.24653738737106323
442,T,0.5316091775894165
443,S,0.3639146685600281
444,E,0.5591990947723389
445,G,0.533139705657959
446,F,0.6302268505096436
447,A,0.47888466715812683
448,F,0.8305150866508484
449,Q,0.3635638654232025
450,V,0.7545911073684692
451,Q,0.24756595492362976
452,D,0.4616626501083374
453,G,0.356481671333313
454,A,0.1990342140197754
455,P,0.17447546124458313
456,G,0.38693511486053467
457,T,0.41266387701034546
458,F,0.6450440883636475
459,N,0.5223686099052429
460,F,0.8268212080001831
